Parte_D/simulation/qsim/Parte_D.msim.vcd
$comment
	File created using the following command:
		vcd file Parte_D.msim.vcd -direction
$end
$date
	Sun Nov  2 21:12:24 2025
$end
$version
	ModelSim Version 10.5b
$end
$timescale
	1ps
$end

$scope module parte_d_vhd_vec_tst $end
$var wire 1 ! A0 $end
$var wire 1 " A1 $end
$var wire 1 # B0 $end
$var wire 1 $ B1 $end
$var wire 1 % Bnadera_Z $end
$var wire 1 & CLK $end
$var wire 1 ' S0 $end
$var wire 1 ( S1 $end
$var wire 1 ) S2 $end
$var wire 1 * S3 $end
$var wire 1 + Selec $end

$scope module i1 $end
$var wire 1 , gnd $end
$var wire 1 - vcc $end
$var wire 1 . unknown $end
$var wire 1 / devoe $end
$var wire 1 0 devclrn $end
$var wire 1 1 devpor $end
$var wire 1 2 ww_devoe $end
$var wire 1 3 ww_devclrn $end
$var wire 1 4 ww_devpor $end
$var wire 1 5 ww_S0 $end
$var wire 1 6 ww_CLK $end
$var wire 1 7 ww_A0 $end
$var wire 1 8 ww_B0 $end
$var wire 1 9 ww_A1 $end
$var wire 1 : ww_B1 $end
$var wire 1 ; ww_Selec $end
$var wire 1 < ww_S1 $end
$var wire 1 = ww_S2 $end
$var wire 1 > ww_S3 $end
$var wire 1 ? ww_Bnadera_Z $end
$var wire 1 @ \CLK~inputclkctrl_INCLK_bus\ [3] $end
$var wire 1 A \CLK~inputclkctrl_INCLK_bus\ [2] $end
$var wire 1 B \CLK~inputclkctrl_INCLK_bus\ [1] $end
$var wire 1 C \CLK~inputclkctrl_INCLK_bus\ [0] $end
$var wire 1 D \S0~output_o\ $end
$var wire 1 E \S1~output_o\ $end
$var wire 1 F \S2~output_o\ $end
$var wire 1 G \S3~output_o\ $end
$var wire 1 H \Bnadera_Z~output_o\ $end
$var wire 1 I \CLK~input_o\ $end
$var wire 1 J \CLK~inputclkctrl_outclk\ $end
$var wire 1 K \B0~input_o\ $end
$var wire 1 L \A0~input_o\ $end
$var wire 1 M \inst2|SYNTHESIZED_WIRE_33~q\ $end
$var wire 1 N \inst2|SYNTHESIZED_WIRE_35~q\ $end
$var wire 1 O \inst2|SYNTHESIZED_WIRE_43~combout\ $end
$var wire 1 P \inst2|S0~q\ $end
$var wire 1 Q \Selec~input_o\ $end
$var wire 1 R \inst8~feeder_combout\ $end
$var wire 1 S \inst8~q\ $end
$var wire 1 T \inst3|S0~0_combout\ $end
$var wire 1 U \inst4~q\ $end
$var wire 1 V \A1~input_o\ $end
$var wire 1 W \B1~input_o\ $end
$var wire 1 X \inst|b2v_inst2|x~combout\ $end
$var wire 1 Y \inst2|SYNTHESIZED_WIRE_34~q\ $end
$var wire 1 Z \inst2|SYNTHESIZED_WIRE_38~feeder_combout\ $end
$var wire 1 [ \inst2|SYNTHESIZED_WIRE_38~q\ $end
$var wire 1 \ \inst2|b2v_inst5|x~combout\ $end
$var wire 1 ] \inst2|S1~q\ $end
$var wire 1 ^ \inst3|S1~0_combout\ $end
$var wire 1 _ \inst5~q\ $end
$var wire 1 ` \inst3|S2~0_combout\ $end
$var wire 1 a \inst2|b2v_inst9|S~0_combout\ $end
$var wire 1 b \inst2|S2~q\ $end
$var wire 1 c \inst3|S2~1_combout\ $end
$var wire 1 d \inst6~q\ $end
$var wire 1 e \inst3|S3~0_combout\ $end
$var wire 1 f \inst2|b2v_inst15|S~0_combout\ $end
$var wire 1 g \inst2|C1~q\ $end
$var wire 1 h \inst3|S3~1_combout\ $end
$var wire 1 i \inst7~q\ $end
$var wire 1 j \inst2|Bandera_Z~0_combout\ $end
$var wire 1 k \inst2|ALT_INV_Bandera_Z~0_combout\ $end
$upscope $end
$upscope $end
$enddefinitions $end
#0
$dumpvars
0!
0"
0#
0$
1%
0&
0'
0(
0)
0*
0+
0,
1-
x.
1/
10
11
12
13
14
05
06
07
08
09
0:
0;
0<
0=
0>
1?
0D
0E
0F
0G
1H
0I
0J
0K
0L
0M
0N
0O
0P
0Q
0R
0S
0T
0U
0V
0W
0X
0Y
0Z
0[
0\
0]
0^
0_
0`
0a
0b
0c
0d
0e
0f
0g
0h
0i
0j
1k
1@
1A
1B
0C
$end
#25000
1&
1"
16
19
1V
1I
1C
1J
1Y
#50000
0&
0"
1!
06
09
17
1L
0V
0I
0C
0J
#75000
1&
1"
16
19
1V
1I
1C
1J
1N
#100000
0&
0"
0!
1$
06
09
07
1:
1W
0L
0V
0I
0C
1Z
0J
#125000
1&
1"
16
19
1V
1I
1C
1`
1J
0N
1[
1a
1j
0k
0H
0?
0%
#150000
0&
0"
1!
06
09
17
1L
0V
0I
0C
1X
0`
0J
#175000
1&
1"
16
19
1V
1I
1C
1`
1J
1N
1b
1c
1\
0a
#200000
0&
0"
0!
0$
1#
06
09
07
0:
18
1K
0W
0L
0V
0I
0C
0Z
0X
0`
0J
#225000
1&
1"
16
19
1V
1I
1C
1X
1J
1M
0N
0[
1]
0b
1d
0c
1^
1a
1f
1F
1=
1)
#250000
0&
0"
1!
06
09
17
1L
0V
0I
0C
0X
0J
#275000
1&
1"
16
19
1V
1I
1C
1X
1J
1N
1_
1b
0d
1g
1h
1c
1O
0F
1E
0=
1<
0)
1(
#300000
0&
0"
0!
1$
06
09
07
1:
1W
0L
0V
0I
0C
0X
1Z
0J
#325000
1&
1"
16
19
1V
1I
1C
1X
1`
1e
1J
0N
1P
1[
1d
1i
1T
0O
0a
0f
1G
1F
1>
1=
1*
1)
#350000
0&
0"
1!
06
09
17
1L
0V
0I
0C
0e
0`
0J
#375000
1&
1"
16
19
1V
1I
1C
0X
1e
1J
1N
0P
1U
0b
0g
0h
0c
0T
1O
0\
1D
15
1'
#400000
0&
0"
0!
0$
0#
1+
06
09
07
0:
08
1;
1Q
0K
0W
0L
0V
0I
0C
0Z
0e
1R
0J
#425000
1&
1"
16
19
1V
1I
1C
1J
0M
0N
1P
1S
0U
0[
0]
0d
0i
0^
0O
0j
1k
0G
0F
0D
0>
0=
05
0*
0)
0'
1H
1?
1%
#450000
0&
0"
1!
06
09
17
1L
0V
0I
0C
0J
#475000
1&
1"
16
19
1V
1I
1C
1J
1N
0P
0_
0E
0<
0(
#500000
0&
0"
0!
1$
06
09
07
1:
1W
0L
0V
0I
0C
1Z
0J
#525000
1&
1"
16
19
1V
1I
1C
1`
1c
1J
0N
1[
1d
1a
1j
0k
1F
1=
1)
0H
0?
0%
#550000
0&
0"
1!
06
09
17
1L
0V
0I
0C
1X
0`
0c
1^
0J
#575000
1&
1"
16
19
1V
1I
1C
1`
1c
1J
1N
1_
1b
1\
0a
1E
1<
1(
#600000
0&
0"
0!
0$
1#
06
09
07
0:
18
1K
0W
0L
0V
0I
0C
0Z
0X
0`
0c
0^
0J
#625000
1&
1"
16
19
1V
1I
1C
1X
1^
1J
1M
0N
0[
1]
0b
0d
1a
1f
0F
0=
0)
#650000
0&
0"
1!
06
09
17
1L
0V
0I
0C
1T
0X
0^
0J
#675000
1&
1"
16
19
1V
1I
1C
1X
1^
1J
1N
1U
1b
1g
1O
1D
15
1'
#700000
0&
0"
0!
1$
06
09
07
1:
1W
0L
0V
0I
0C
0T
0X
1Z
0^
0J
#725000
1&
1"
16
19
1V
1I
1C
1X
1`
1e
1c
1^
1J
0N
1P
0U
1[
1d
0O
0a
0f
1F
0D
1=
05
1)
0'
#750000
0&
0"
1!
06
09
17
1L
0V
0I
0C
0e
1T
0`
1h
0c
0h
0J
#775000
1&
1"
16
19
1V
1I
1C
0X
1e
1h
0^
1J
1N
0P
1U
0_
0b
0d
0g
1i
1O
0\
1G
0F
0E
1D
1>
0=
0<
15
1*
0)
0(
1'
#800000
0&
0"
0!
0$
0#
0+
06
09
07
0:
08
0;
0Q
0K
0W
0L
0V
0I
0C
0h
0Z
0T
0e
0R
0J
