Teoria/EJ5_FFJK/simulation/qsim/FF_JK.msim.vcd
$comment
	File created using the following command:
		vcd file FF_JK.msim.vcd -direction
$end
$date
	Sat Nov  1 19:50:49 2025
$end
$version
	ModelSim Version 10.5b
$end
$timescale
	1ps
$end

$scope module ffjk_vhd_vec_tst $end
$var wire 1 ! clk $end
$var wire 1 " J $end
$var wire 1 # K $end
$var wire 1 $ Q $end

$scope module i1 $end
$var wire 1 % gnd $end
$var wire 1 & vcc $end
$var wire 1 ' unknown $end
$var wire 1 ( devoe $end
$var wire 1 ) devclrn $end
$var wire 1 * devpor $end
$var wire 1 + ww_devoe $end
$var wire 1 , ww_devclrn $end
$var wire 1 - ww_devpor $end
$var wire 1 . ww_J $end
$var wire 1 / ww_K $end
$var wire 1 0 ww_clk $end
$var wire 1 1 ww_Q $end
$var wire 1 2 \Q~output_o\ $end
$var wire 1 3 \clk~input_o\ $end
$var wire 1 4 \J~input_o\ $end
$var wire 1 5 \K~input_o\ $end
$var wire 1 6 \est~0_combout\ $end
$var wire 1 7 \est~q\ $end
$upscope $end
$upscope $end
$enddefinitions $end
#0
$dumpvars
0!
0"
0#
0$
0%
1&
x'
1(
1)
1*
1+
1,
1-
0.
0/
00
01
02
03
04
05
06
07
$end
#50000
1!
10
13
#100000
0!
00
03
#150000
1!
10
13
#200000
0!
1"
00
1.
14
03
16
#250000
1!
10
13
17
12
11
1$
#300000
0!
00
03
#350000
1!
10
13
#400000
0!
0"
1#
00
0.
1/
15
04
03
06
#450000
1!
10
13
07
02
01
0$
#500000
0!
00
03
#550000
1!
10
13
#600000
0!
1"
00
1.
14
03
16
#650000
1!
10
13
17
06
12
11
1$
#700000
0!
00
03
#750000
1!
10
13
07
16
02
01
0$
#800000
0!
0"
0#
00
0.
0/
05
04
03
06
#850000
1!
10
13
#900000
0!
00
03
#950000
1!
10
13
