Parte_C/simulation/qsim/Parte_C.msim.vcd
$comment
	File created using the following command:
		vcd file Parte_C.msim.vcd -direction
$end
$date
	Sun Nov  2 20:46:20 2025
$end
$version
	ModelSim Version 10.5b
$end
$timescale
	1ps
$end

$scope module parte_c_vhd_vec_tst $end
$var wire 1 ! A0 $end
$var wire 1 " A1 $end
$var wire 1 # B0 $end
$var wire 1 $ B1 $end
$var wire 1 % Bandera_Z $end
$var wire 1 & C1 $end
$var wire 1 ' S0 $end
$var wire 1 ( S1 $end
$var wire 1 ) S2 $end

$scope module i1 $end
$var wire 1 * gnd $end
$var wire 1 + vcc $end
$var wire 1 , unknown $end
$var wire 1 - devoe $end
$var wire 1 . devclrn $end
$var wire 1 / devpor $end
$var wire 1 0 ww_devoe $end
$var wire 1 1 ww_devclrn $end
$var wire 1 2 ww_devpor $end
$var wire 1 3 ww_S0 $end
$var wire 1 4 ww_A0 $end
$var wire 1 5 ww_B0 $end
$var wire 1 6 ww_S1 $end
$var wire 1 7 ww_A1 $end
$var wire 1 8 ww_B1 $end
$var wire 1 9 ww_S2 $end
$var wire 1 : ww_C1 $end
$var wire 1 ; ww_Bandera_Z $end
$var wire 1 < \S0~output_o\ $end
$var wire 1 = \S1~output_o\ $end
$var wire 1 > \S2~output_o\ $end
$var wire 1 ? \C1~output_o\ $end
$var wire 1 @ \Bandera_Z~output_o\ $end
$var wire 1 A \A0~input_o\ $end
$var wire 1 B \B0~input_o\ $end
$var wire 1 C \inst1~combout\ $end
$var wire 1 D \A1~input_o\ $end
$var wire 1 E \B1~input_o\ $end
$var wire 1 F \inst5|x~combout\ $end
$var wire 1 G \inst9|S~0_combout\ $end
$var wire 1 H \inst15|S~0_combout\ $end
$var wire 1 I \inst17~0_combout\ $end
$upscope $end
$upscope $end
$enddefinitions $end
#0
$dumpvars
0!
0"
0#
0$
1%
0&
0'
0(
0)
0*
1+
x,
1-
1.
1/
10
11
12
03
04
05
06
07
08
09
0:
1;
0<
0=
0>
0?
1@
0A
0B
0C
0D
0E
0F
0G
0H
1I
$end
#25000
1#
15
1B
#50000
0#
1$
05
18
1E
0B
#75000
1#
15
1B
#100000
0#
0$
1!
05
08
14
1A
0E
0B
#125000
1#
15
1B
1C
0I
0@
1<
0;
13
0%
1'
#150000
0#
1$
05
18
1E
0B
0C
1F
1G
1H
1?
1>
1=
0<
1:
19
16
03
1&
1)
1(
0'
#175000
1#
15
1B
1C
1<
13
1'
#200000
0#
0$
0!
1"
05
08
04
17
1D
0A
0E
0B
0C
0F
0G
0H
1I
1@
0?
0>
0=
0<
1;
0:
09
06
03
1%
0&
0)
0(
0'
#225000
1#
15
1B
1F
1G
1H
0I
0@
1?
1>
1=
0;
1:
19
16
0%
1&
1)
1(
#250000
0#
1$
05
18
1E
0B
0F
0H
0?
0=
0:
06
0&
0(
#275000
1#
15
1B
1F
0G
0>
1=
09
16
0)
1(
#300000
0#
0$
1!
05
08
14
1A
0E
0B
0F
1I
1@
0=
1;
06
1%
0(
#325000
1#
15
1B
1C
1F
1G
1H
0I
0@
1?
1>
1=
1<
0;
1:
19
16
13
0%
1&
1)
1(
1'
#350000
0#
1$
05
18
1E
0B
0C
0G
0H
0?
0>
0<
0:
09
03
0&
0)
0'
#375000
1#
15
1B
1C
0F
0=
1<
06
13
0(
1'
#400000
0#
0$
0!
0"
05
08
04
07
0D
0A
0E
0B
0C
1I
1@
0<
1;
03
1%
0'
