Parte_B/simulation/qsim/Parte_B.msim.vcd
$comment
	File created using the following command:
		vcd file Parte_B.msim.vcd -direction
$end
$date
	Sat Nov  1 23:44:34 2025
$end
$version
	ModelSim Version 10.5b
$end
$timescale
	1ps
$end

$scope module parte_b_vhd_vec_tst $end
$var wire 1 ! A0 $end
$var wire 1 " A1 $end
$var wire 1 # B0 $end
$var wire 1 $ B1 $end
$var wire 1 % C1 $end
$var wire 1 & S0 $end
$var wire 1 ' S1 $end
$var wire 1 ( S2 $end

$scope module i1 $end
$var wire 1 ) gnd $end
$var wire 1 * vcc $end
$var wire 1 + unknown $end
$var wire 1 , devoe $end
$var wire 1 - devclrn $end
$var wire 1 . devpor $end
$var wire 1 / ww_devoe $end
$var wire 1 0 ww_devclrn $end
$var wire 1 1 ww_devpor $end
$var wire 1 2 ww_A0 $end
$var wire 1 3 ww_B0 $end
$var wire 1 4 ww_A1 $end
$var wire 1 5 ww_B1 $end
$var wire 1 6 ww_S0 $end
$var wire 1 7 ww_S1 $end
$var wire 1 8 ww_S2 $end
$var wire 1 9 ww_C1 $end
$var wire 1 : \S0~output_o\ $end
$var wire 1 ; \S1~output_o\ $end
$var wire 1 < \S2~output_o\ $end
$var wire 1 = \C1~output_o\ $end
$var wire 1 > \A0~input_o\ $end
$var wire 1 ? \B0~input_o\ $end
$var wire 1 @ \S0~0_combout\ $end
$var wire 1 A \A1~input_o\ $end
$var wire 1 B \B1~input_o\ $end
$var wire 1 C \b2v_inst2|x~combout\ $end
$var wire 1 D \b2v_inst5|S~0_combout\ $end
$var wire 1 E \b2v_inst5|C_out~0_combout\ $end
$upscope $end
$upscope $end
$enddefinitions $end
#0
$dumpvars
0!
0"
0#
0$
0%
0&
0'
0(
0)
1*
x+
1,
1-
1.
1/
10
11
02
03
04
05
06
07
08
09
0:
0;
0<
0=
0>
0?
0@
0A
0B
0C
0D
0E
$end
#50000
1#
13
1?
#100000
0#
1$
03
15
1B
0?
#150000
1#
13
1?
#200000
0#
0$
1!
03
05
12
1>
0B
0?
#250000
1#
13
1?
1@
1:
16
1&
#300000
0#
1$
03
15
1B
0?
0@
1C
1;
0:
17
06
1'
0&
#350000
1#
13
1?
1@
1:
16
1&
#400000
0#
0$
0!
1"
03
05
02
14
1A
0>
0B
0?
0@
0C
0;
0:
07
06
0'
0&
#450000
1#
13
1?
1C
1;
17
1'
#500000
0#
1$
03
15
1B
0?
0C
1D
1<
0;
18
07
1(
0'
#550000
1#
13
1?
1C
1;
17
1'
#600000
0#
0$
1!
03
05
12
1>
0B
0?
0C
0D
0<
0;
08
07
0(
0'
#650000
1#
13
1?
1@
1C
1;
1:
17
16
1'
1&
#700000
0#
1$
03
15
1B
0?
0@
1D
1<
0:
18
06
1(
0&
#750000
1#
13
1?
1@
0C
0D
1E
1=
0<
0;
1:
19
08
07
16
1%
0(
0'
1&
#800000
0#
0$
0!
0"
03
05
02
04
0A
0>
0B
0?
0@
0E
0=
0:
09
06
0%
0&
